…
#Genius
genius.id <- "O9Yj5AgoNZ03LRyJdiAH5a8LbGqHFCnnzp2jkjNjcIim_AcTH9u4GdYuukAyv8Uo"
genius.secret <- "ypCqIg4fUE1bXdkL-xL2yfHRWT8kja5ATTReuS-4iDxfnz7EdEccuoM25soOGz9O7hmOx_P3vjVWoUvkO0TfKw"
genius_album(artist="Drake & Future", album = "what a time to be alive")
```

    ## Joining, by = c("track_title", "track_n", "track_url")

    ## # A tibble: 810 x 4
    ##    track_title                       track_n lyric                    line
    ##    <chr>                               <int> <chr>                   <int>
    ##  1 Digital Dash (Ft. Drake & Future)       1 Metro Boomin'               1
    ##  2 Digital Dash (Ft. Drake & Future)       1 Metro Boomin' want som…     2
    ##  3 Digital Dash (Ft. Drake & Future)       1 Yeah, yeah, get it, ge…     3
    ##  4 Digital Dash (Ft. Drake & Future)       1 My dope in the bushes       4
    ##  5 Digital Dash (Ft. Drake & Future)       1 My dope in the bushes       5
    ##  6 Digital Dash (Ft. Drake & Future)       1 I know how to cook it       6
    ##  7 Digital Dash (Ft. Drake & Future)       1 My bitch good looking       7
    ##  8 Digital Dash (Ft. Drake & Future)       1 My bitch good looking       8
    ##  9 Digital Dash (Ft. Drake & Future)       1 My bitch good looking       9
    ## 10 Digital Dash (Ft. Drake & Future)       1 My dope in the bushes      10
    ## # ... with 800 more rows

``` r
genius_album(artist="Drake", album="More Life")
```

    ## Joining, by = c("track_title", "track_n", "track_url")

    ## # A tibble: 1,364 x 4
    ##    track_title track_n lyric                                          line
    ##    <chr>         <int> <chr>                                         <int>
    ##  1 Free Smoke        1 Intro: Nai Palm                                   1
    ##  2 Free Smoke        1 " &amp; "                                         2
    ##  3 Free Smoke        1 Drake                                             3
    ##  4 Free Smoke        1 Is it the strength of your feelings               4
    ##  5 Free Smoke        1 Overthrowing your pain                            5
    ##  6 Free Smoke        1 You'll see new heights you'll be reaching         6
    ##  7 Free Smoke        1 And is it today that you will find your new …     7
    ##  8 Free Smoke        1 And in your wake, ripple your sweet fate          8
    ##  9 Free Smoke        1 And more chune for your headtop                   9
    ## 10 Free Smoke        1 So watch how you speak on my name, you know?     10
    ## # ... with 1,354 more rows
…
``` r
bing.sentiments <- get_sentiments("bing")
scores2 <- lyrics_df4 %>% unnest_tokens(word,lyrics) %>% anti_join(stop_words) %>%  inner_join(bing.sentiments) %>% 
count(track_name,sentiment) %>% spread(sentiment,n, fill=0) %>% mutate(bing.score = (positive-negative)/(negative+positive))
```

    ## Joining, by = "word"
    ## Joining, by = "word"

``` r
scores2
```

    ## # A tibble: 167 x 4
    ##    track_name          negative positive bing.score
    ##    <chr>                  <dbl>    <dbl>      <dbl>
    ##  1 10 bands                  10       14     0.167 
    ##  2 30 for 30 freestyle       28        5    -0.697 
    ##  3 305 to my city            15        6    -0.429 
    ##  4 4422                       8        1    -0.778 
    ##  5 6 god                     19        8    -0.407 
    ##  6 6 man                     14        2    -0.75  
    ##  7 6pm in new york           29       19    -0.208 
    ##  8 8 out of 10               12       14     0.0769
    ##  9 9                         27        5    -0.688 
    ## 10 9am in dallas             35       17    -0.346 
    ## # ... with 157 more rows
…
